{
  "mainSolution": {
    "value": "/home/san/CompetitiveProgramming/Contests/Codeforces - Codeforces Round #611 (Div. 3)/E. New Year Parties/Competitive Programming Template.cpp"
  },
  "bruteSolution": {},
  "generator": {},
  "checker": {},
  "companionConfig": {
    "value": {
      "name": "E. New Year Parties",
      "group": "Codeforces - Codeforces Round #611 (Div. 3)",
      "url": "https://codeforces.com/contest/1283/problem/E",
      "memoryLimit": 256,
      "timeLimit": 2000
    }
  }
}