{
  "mainSolution": {
    "value": "/home/san/CompetitiveProgramming/Contests/Codeforces - Codeforces Round #531 (Div. 3)/C. Doors Breaking and Repairing/Competitive Programming Template.cpp"
  },
  "bruteSolution": {},
  "generator": {},
  "checker": {},
  "companionConfig": {
    "value": {
      "name": "C. Doors Breaking and Repairing",
      "group": "Codeforces - Codeforces Round #531 (Div. 3)",
      "url": "https://codeforces.com/contest/1102/problem/C",
      "memoryLimit": 256,
      "timeLimit": 1000
    }
  }
}