{
  "mainSolution": {
    "value": "/home/san/CompetitiveProgramming/Contests/Codeforces - Codeforces Round #647 (Div. 1) - Thanks, Algo Muse!/B. Johnny and Grandmaster/Competitive Programming Template.cpp"
  },
  "bruteSolution": {},
  "generator": {},
  "checker": {}
}