{
  "mainSolution": {
    "value": "/home/san/CompetitiveProgramming/Contests/Codeforces - Codeforces Round #544 (Div. 3)/D. Zero Quantity Maximization/Competitive Programming Template.cpp"
  },
  "bruteSolution": {},
  "generator": {},
  "checker": {},
  "companionConfig": {
    "value": {
      "name": "D. Zero Quantity Maximization",
      "group": "Codeforces - Codeforces Round #544 (Div. 3)",
      "url": "https://codeforces.com/contest/1133/problem/D",
      "memoryLimit": 256,
      "timeLimit": 2000
    }
  }
}