{
  "mainSolution": {
    "value": "/home/san/CompetitiveProgramming/Contests/Codeforces - 2019-2020 ACM-ICPC Pacific Northwest Regional Contest (Div. 1)/I. Error Correction/Competitive Programming Template.cpp"
  },
  "bruteSolution": {},
  "generator": {},
  "checker": {}
}