{
  "mainSolution": {
    "value": "/home/san/CompetitiveProgramming/Contests/Codeforces - Codeforces Round #647 (Div. 2) - Thanks, Algo Muse!/C. Johnny and Another Rating Drop/Competitive Programming Template.cpp"
  },
  "bruteSolution": {},
  "generator": {},
  "checker": {}
}