{
  "mainSolution": {
    "value": "/home/san/CompetitiveProgramming/Contests/Codeforces - Codeforces Round #532 (Div. 2)/C. NN and the Optical Illusion/Competitive Programming Template.cpp"
  },
  "bruteSolution": {},
  "generator": {},
  "checker": {},
  "companionConfig": {
    "value": {
      "name": "C. NN and the Optical Illusion",
      "group": "Codeforces - Codeforces Round #532 (Div. 2)",
      "url": "https://codeforces.com/contest/1100/problem/C",
      "memoryLimit": 256,
      "timeLimit": 2000
    }
  }
}