{
  "mainSolution": {
    "value": "/home/san/CompetitiveProgramming/Contests/Codeforces - Codeforces Round #653 (Div. 3)/D. Zero Remainder Array/Competitive Programming Template.cpp"
  },
  "bruteSolution": {},
  "generator": {},
  "checker": {},
  "companionConfig": {
    "value": {
      "name": "D. Zero Remainder Array",
      "group": "Codeforces - Codeforces Round #653 (Div. 3)",
      "url": "https://codeforces.com/contest/1374/problem/D",
      "memoryLimit": 256,
      "timeLimit": 2000
    }
  }
}